0	0.914798
1	1.22024
2	1.77494
3	2.60953
4	3.62593
5	4.54956
6	5.03761
7	4.87607
8	4.09335
9	2.94482
10	1.79817
11	0.940206
12	0.439129
13	0.197668
14	0.093696
15	0.0499629
16	0.030417
17	0.0203499
18	0.0141112
19	0.00986241
20	0.00723954
21	0.0062262
22	0.00715737
23	0.0119847
24	0.0288129
25	0.0876687
26	0.27641
27	0.735226
28	1.42782
29	1.93392
30	1.92221
31	1.57011
32	1.19914
33	0.952299
34	0.838834
35	0.839052
36	0.947492
37	1.18083
38	1.5725
39	2.14932
40	2.87375
41	3.56625
42	3.91436
43	3.68529
44	2.97517
45	2.13649
46	1.46283
47	1.04136
48	0.83584
49	0.797639
